"Status","Start Time","Stop Time","Duration in ms","Parent Suite","Suite","Sub Suite","Test Class","Test Method","Name","Description"
"passed","Tue Sep 21 17:58:25 BDT 2021","Tue Sep 21 17:58:46 BDT 2021","20747","","Working TMMIM module","","Working TMMIM module","TC_5. PE: login TMMIM, RFQs No. Search and make a Quotation and logout","TC_5. PE: login TMMIM, RFQs No. Search and make a Quotation and logout",""
"passed","Tue Sep 21 17:58:13 BDT 2021","Tue Sep 21 17:58:25 BDT 2021","11946","","Working TMMIM module","","Working TMMIM module","TC_4. PE: login TMMIM, check Subscription payment history and logout","TC_4. PE: login TMMIM, check Subscription payment history and logout",""
"skipped","Tue Sep 21 17:57:36 BDT 2021","Tue Sep 21 17:57:36 BDT 2021","0","","Working TMMIM module","","Working TMMIM module","TC_2. PE: login TMMIM, Update password and logout","TC_2. PE: login TMMIM, Update password and logout",""
"failed","Tue Sep 21 17:58:46 BDT 2021","Tue Sep 21 17:59:14 BDT 2021","27501","","Working TMMIM module","","Working TMMIM module","TC_6. PE: login TMMIM,Quotation Download CSV file and RFQs No. Search and resubmit Quotation and logout","TC_6. PE: login TMMIM,Quotation Download CSV file and RFQs No. Search and resubmit Quotation and logout",""
"passed","Tue Sep 21 17:57:36 BDT 2021","Tue Sep 21 17:58:13 BDT 2021","37221","","Working TMMIM module","","Working TMMIM module","TC_3. PE: login TMMIM,Subscription subscribe Plan and logout","TC_3. PE: login TMMIM,Subscription subscribe Plan and logout",""
"passed","Tue Sep 21 17:56:31 BDT 2021","Tue Sep 21 17:57:36 BDT 2021","65710","","Working TMMIM module","","Working TMMIM module","TC_1. PE: login TMMIM, Update Profile Details and logout","TC_1. PE: login TMMIM, Update Profile Details and logout",""
